{
    "relationships": [],
    "fields": [
        {
            "fieldId": 1,
            "fieldName": "itemName",
            "fieldType": "String",
            "fieldValidateRules": [
                "required"
            ]
        },
        {
            "fieldId": 2,
            "fieldName": "itemQuantity",
            "fieldType": "Integer"
        },
        {
            "fieldId": 3,
            "fieldName": "itemDetails",
            "fieldType": "byte[]",
            "fieldTypeBlobContent": "text"
        },
        {
            "fieldId": 4,
            "fieldName": "userInput",
            "fieldType": "String"
        },
        {
            "fieldId": 5,
            "fieldName": "timeInput",
            "fieldType": "ZonedDateTime"
        }
    ],
    "changelogDate": "20201113091459",
    "dto": "mapstruct",
    "service": "serviceImpl",
    "pagination": "pagination"
}